{"pagination":{"total_items":196,"total_pages":2,"page":1,"per_page":100},"events":[{"id":311537,"user_id":2,"user_name":"Jazz Garcha","workspace_id":5886,"verb":"viewed","message":"viewed this workspace","subject_type":"Workspace","subject_id":5886,"created_at":"2016-12-13T01:38:31.396Z"}]}
